…
``` r
# Neighborhood
count(ames_train, Neighborhood) %>% arrange(n)
```

    ## # A tibble: 27 x 2
    ##    Neighborhood                                n
    ##    <fct>                                   <int>
    ##  1 Green_Hills                                 2
    ##  2 Greens                                      7
    ##  3 Blueste                                     8
    ##  4 Northpark_Villa                            17
    ##  5 Briardale                                  18
    ##  6 Veenker                                    20
    ##  7 Bloomington_Heights                        21
    ##  8 South_and_West_of_Iowa_State_University    27
    ##  9 Meadow_Village                             29
    ## 10 Clear_Creek                                31
    ## # … with 17 more rows
…
