…
Langkah terakhir adalah mengaplikasikan *blueprint* pada data *training*
dan *test* menggunakan fungsi `bake()`.

``` r
baked_train <- bake(prepare, new_data = ames_train2)
baked_test <- bake(prepare, new_data = ames_test2)
baked_train
```

    ## # A tibble: 2,053 x 108
    ##    sale_price   PC01   PC02     PC03   PC04  PC05    PC06   PC07   PC08     PC09
    ##         <int>  <dbl>  <dbl>    <dbl>  <dbl> <dbl>   <dbl>  <dbl>  <dbl>    <dbl>
    ##  1     215000 -1.16  -1.44  -3.79    -1.27  2.49   0.0381  0.782 -0.879  6.27e-1
    ##  2     105000  2.17  -1.62  -0.00148 -0.196 2.73   0.850   0.604 -0.931 -1.21e-1
    ##  3     172000  0.947 -0.954 -1.05    -0.707 3.75   2.18    2.37   2.56  -7.32e-1
    ##  4     195500 -1.36   0.640  1.88    -1.48  1.79   1.31    0.552  0.504  7.97e-5
    ##  5     213500 -0.635 -1.65   1.13    -1.96  1.14  -3.02   -1.26   1.38   1.11e+0
    ##  6     236500 -1.97  -2.74   0.685   -2.96  0.676 -2.15   -0.915  1.18   2.00e-1
    ##  7     189000 -1.50   1.46   2.54    -0.347 2.07   0.0136  0.558 -0.129  2.16e-2
    ##  8     175900 -0.605  1.62   1.52    -1.86  1.48  -1.24    1.56  -0.216  8.49e-1
    ##  9     180400 -0.550  1.43   2.69    -0.462 2.13   0.120   0.522 -0.652  3.14e-1
    ## 10     171500 -0.525 -2.37   0.189   -1.65  1.80  -0.830   0.847 -0.372  9.14e-1
    ## # … with 2,043 more rows, and 98 more variables: PC10 <dbl>, PC11 <dbl>,
    ## #   PC12 <dbl>, PC13 <dbl>, PC14 <dbl>, PC15 <dbl>, ms_zoning_C..all. <dbl>,
    ## #   ms_zoning_FV <dbl>, ms_zoning_I..all. <dbl>, ms_zoning_RH <dbl>,
    ## #   ms_zoning_RL <dbl>, ms_zoning_RM <dbl>, lot_shape_IR2 <dbl>,
    ## #   lot_shape_IR3 <dbl>, lot_shape_Reg <dbl>, lot_config_CulDSac <dbl>,
    ## #   lot_config_FR2 <dbl>, lot_config_FR3 <dbl>, lot_config_Inside <dbl>,
    ## #   condition_1_Feedr <dbl>, condition_1_Norm <dbl>, condition_1_PosA <dbl>,
    ## #   condition_1_PosN <dbl>, condition_1_RRAe <dbl>, condition_1_RRAn <dbl>,
    ## #   condition_1_RRNe <dbl>, condition_1_RRNn <dbl>, bldg_type_X2fmCon <dbl>,
…
