…
Langkah terakhir adalah mengaplikasikan *blueprint* pada data *training*
dan *test* menggunakan fungsi `bake()`.

``` r
baked_train <- bake(prepare, new_data = data_train)
baked_test <- bake(prepare, new_data = data_test)
baked_train
```

    ## # A tibble: 3,565 x 23
    ##    Seniority   Time      Age Expenses Income  Assets    Debt Amount   Price
    ##        <dbl>  <dbl>    <dbl>    <dbl>  <dbl>   <dbl>   <dbl>  <dbl>   <dbl>
    ##  1   0.130    0.931 -0.629      0.905 -0.175 -0.479  -0.272  -0.504 -1.03  
    ##  2   0.253   -0.702  0.816      1.78   0.734 -0.209  -0.272   2.05   2.56  
    ##  3  -0.974    0.931 -1.17       0.393  0.504 -0.254  -0.272  -0.291 -0.230 
    ##  4  -0.974   -0.702 -0.990     -0.478 -0.457 -0.479  -0.272  -1.55  -0.926 
    ##  5  -0.851    0.931 -0.0872     1.01   0.914 -0.164  -0.272  -0.823  0.308 
    ##  6   2.58     0.931  0.635      1.01  -0.227  0.419  -0.272   1.20   0.568 
    ##  7   0.130   -2.34  -0.900     -1.04  -0.803 -0.479  -0.272  -1.78  -0.619 
    ##  8  -0.974    0.114  0.364      1.78  -0.803 -0.479  -0.272   0.348  0.0105
    ##  9   0.00747  0.931 -0.629      1.01   0.721 -0.0298  1.62    0.987  0.316 
    ## 10   1.36    -0.702  0.00307    1.01   0.350 -0.164  -0.0755 -0.930 -0.876 
    ## # ... with 3,555 more rows, and 14 more variables: Status <fct>,
    ## #   Home_other <dbl>, Home_owner <dbl>, Home_parents <dbl>, Home_priv <dbl>,
    ## #   Home_rent <dbl>, Marital_married <dbl>, Marital_separated <dbl>,
    ## #   Marital_single <dbl>, Marital_widow <dbl>, Records_yes <dbl>,
    ## #   Job_freelance <dbl>, Job_others <dbl>, Job_partime <dbl>
…
