…
Langkah terakhir adalah mengaplikasikan *blueprint* pada data *training*
dan *test* menggunakan fungsi `bake()`.

``` r
baked_train <- bake(prepare, new_data = data_train)
baked_test <- bake(prepare, new_data = data_test)
baked_train
```

    ## # A tibble: 982 x 28
    ##    popularity duration_ms danceability  energy loudness speechiness acousticness
    ##         <dbl>       <dbl>        <dbl>   <dbl>    <dbl>       <dbl>        <dbl>
    ##  1       1.74      0.0449        0.161 -0.173    0.669       0.471        -0.498
    ##  2       3.19     -0.288         1.61  -0.220    0.821      -0.234        -0.668
    ##  3       2.47     -0.365         0.844 -0.194    0.848      -0.270        -0.608
    ##  4       1.74     -0.319         1.39  -0.190    0.461      -0.300        -0.449
    ##  5       1.82     -0.341         2.32  -0.360    0.897      -0.216         0.682
    ##  6       1.67     -0.426         1.68   0.0904   1.08       -0.0444       -0.339
    ##  7       1.74     -0.200         0.574 -1.03     0.0820     -0.243         1.65 
    ##  8       2.76     -0.160         0.611 -0.793    0.369      -0.211         1.03 
    ##  9       1.67      3.80          1.34   0.698    0.455      -0.173        -0.300
    ## 10       1.67     -0.0152        1.51  -0.0880   0.772      -0.196        -0.378
    ## # ... with 972 more rows, and 21 more variables: instrumentalness <dbl>,
    ## #   liveness <dbl>, valence <dbl>, tempo <dbl>, artist <fct>, key_c. <dbl>,
    ## #   key_d <dbl>, key_d. <dbl>, key_e <dbl>, key_f <dbl>, key_f. <dbl>,
    ## #   key_g <dbl>, key_g. <dbl>, key_a <dbl>, key_a. <dbl>, key_b <dbl>,
    ## #   mode_major <dbl>, time_signature_X1 <dbl>, time_signature_X3 <dbl>,
    ## #   time_signature_X4 <dbl>, time_signature_X5 <dbl>
…
