…
Langkah terakhir adalah mengaplikasikan *blueprint* pada data *training*
dan *test* menggunakan fungsi `bake()`.

``` r
baked_train <- bake(prepare, new_data = spotify_train)
baked_test <- bake(prepare, new_data = spotify_test)
baked_train
```

    ## # A tibble: 982 x 15
    ##    popularity duration_ms danceability  energy key   loudness mode  speechiness
    ##         <dbl>       <dbl>        <dbl>   <dbl> <fct>    <dbl> <fct>       <dbl>
    ##  1       1.74      0.0449        0.161 -0.173  a#      0.669  minor      0.471 
    ##  2       3.19     -0.288         1.61  -0.220  f       0.821  minor     -0.234 
    ##  3       2.47     -0.365         0.844 -0.194  g#      0.848  major     -0.270 
    ##  4       1.74     -0.319         1.39  -0.190  g#      0.461  minor     -0.300 
    ##  5       1.82     -0.341         2.32  -0.360  b       0.897  major     -0.216 
    ##  6       1.67     -0.426         1.68   0.0904 f       1.08   major     -0.0444
    ##  7       1.74     -0.200         0.574 -1.03   a#      0.0820 major     -0.243 
    ##  8       2.76     -0.160         0.611 -0.793  c       0.369  major     -0.211 
    ##  9       1.67      3.80          1.34   0.698  c       0.455  minor     -0.173 
    ## 10       1.67     -0.0152        1.51  -0.0880 c#      0.772  major     -0.196 
    ## # … with 972 more rows, and 7 more variables: acousticness <dbl>,
    ## #   instrumentalness <dbl>, liveness <dbl>, valence <dbl>, tempo <dbl>,
    ## #   time_signature <fct>, artist <fct>
…
