…
``` r
# Neighborhood
count(data_train, Neighborhood) %>% arrange(n)
```

    ## # A tibble: 27 x 2
    ##    Neighborhood                                n
    ##    <fct>                                   <int>
    ##  1 Green_Hills                                 2
    ##  2 Greens                                      7
    ##  3 Blueste                                     8
    ##  4 Northpark_Villa                            17
    ##  5 Briardale                                  18
    ##  6 Veenker                                    20
    ##  7 Bloomington_Heights                        21
    ##  8 South_and_West_of_Iowa_State_University    27
    ##  9 Meadow_Village                             29
    ## 10 Clear_Creek                                31
    ## # ... with 17 more rows
…
Langkah terakhir adalah mengaplikasikan *blueprint* pada data *training*
dan *test* menggunakan fungsi `bake()`.

``` r
baked_train <- bake(prepare, new_data = data_train)
baked_test <- bake(prepare, new_data = data_test)
baked_train
```

    ## # A tibble: 2,053 x 61
    ##    MS_SubClass MS_Zoning Lot_Frontage Lot_Area Lot_Shape Lot_Config Neighborhood
    ##    <fct>       <fct>            <dbl>    <int> <fct>     <fct>      <fct>       
    ##  1 One_Story_~ Resident~          141    31770 Slightly~ Corner     North_Ames  
    ##  2 One_Story_~ other               80    11622 Regular   Inside     North_Ames  
    ##  3 One_Story_~ Resident~           81    14267 Slightly~ Corner     North_Ames  
    ##  4 Two_Story_~ Resident~           78     9978 Slightly~ Inside     Gilbert     
    ##  5 One_Story_~ Resident~           41     4920 Regular   Inside     other       
    ##  6 One_Story_~ Resident~           39     5389 Slightly~ Inside     other       
    ##  7 Two_Story_~ Resident~           60     7500 Regular   Inside     Gilbert     
    ##  8 Two_Story_~ Resident~           75    10000 Slightly~ Corner     Gilbert     
    ##  9 Two_Story_~ Resident~           63     8402 Slightly~ Inside     Gilbert     
    ## 10 One_Story_~ Resident~           85    10176 Regular   Inside     Gilbert     
    ## # ... with 2,043 more rows, and 54 more variables: Condition_1 <fct>,
    ## #   Bldg_Type <fct>, House_Style <fct>, Overall_Cond <fct>, Year_Built <int>,
    ## #   Year_Remod_Add <int>, Roof_Style <fct>, Exterior_1st <fct>,
    ## #   Exterior_2nd <fct>, Mas_Vnr_Type <fct>, Mas_Vnr_Area <dbl>,
    ## #   Exter_Cond <fct>, Foundation <fct>, Bsmt_Exposure <fct>,
    ## #   BsmtFin_Type_1 <fct>, BsmtFin_SF_1 <dbl>, BsmtFin_SF_2 <dbl>,
    ## #   Bsmt_Unf_SF <dbl>, Total_Bsmt_SF <dbl>, Heating_QC <fct>,
    ## #   Central_Air <fct>, Electrical <fct>, First_Flr_SF <int>,
    ## #   Second_Flr_SF <int>, Gr_Liv_Area <int>, Bsmt_Full_Bath <dbl>,
…
