…
Langkah terakhir adalah mengaplikasikan *blueprint* pada data *training*
dan *test* menggunakan fungsi `bake()`.

``` r
baked_train <- bake(prepare, new_data = data_train)
baked_test <- bake(prepare, new_data = data_test)
baked_train
```

    ## # A tibble: 3,565 x 14
    ##    Seniority Home    Time      Age Marital Records Job   Expenses Income  Assets
    ##        <dbl> <fct>  <dbl>    <dbl> <fct>   <fct>   <fct>    <dbl>  <dbl>   <dbl>
    ##  1   0.130   rent   0.931 -0.629   married no      free~    0.905 -0.175 -0.479 
    ##  2   0.253   owner -0.702  0.816   married yes     free~    1.78   0.734 -0.209 
    ##  3  -0.974   rent   0.931 -1.17    single  no      fixed    0.393  0.504 -0.254 
    ##  4  -0.974   rent  -0.702 -0.990   single  no      fixed   -0.478 -0.457 -0.479 
    ##  5  -0.851   owner  0.931 -0.0872  married no      fixed    1.01   0.914 -0.164 
    ##  6   2.58    owner  0.931  0.635   married no      fixed    1.01  -0.227  0.419 
    ##  7   0.130   pare~ -2.34  -0.900   single  no      fixed   -1.04  -0.803 -0.479 
    ##  8  -0.974   pare~  0.114  0.364   married no      part~    1.78  -0.803 -0.479 
    ##  9   0.00747 owner  0.931 -0.629   married no      fixed    1.01   0.721 -0.0298
    ## 10   1.36    priv  -0.702  0.00307 married no      fixed    1.01   0.350 -0.164 
    ## # ... with 3,555 more rows, and 4 more variables: Debt <dbl>, Amount <dbl>,
    ## #   Price <dbl>, Status <fct>
…
